date,value
1789-01-01,27
1790-01-01,27
1791-01-01,51
1792-01-01,51
1793-01-01,51
1794-01-01,51
1795-01-01,51
1796-01-01,51
1797-01-01,51
1798-01-01,51
1799-01-01,51
1800-01-01,62
1801-01-01,62
1802-01-01,62
1803-01-01,62
1804-01-01,62
1805-01-01,68
1806-01-01,62
1807-01-01,67
1808-01-01,67
1809-01-01,67
1810-01-01,67
1811-01-01,62
1812-01-01,62
1813-01-01,62
1814-01-01,62
1815-01-01,62
1816-01-01,62
1817-01-01,62
1818-01-01,62
1819-01-01,74
1820-01-01,74
1821-01-01,74
1822-01-01,83
1823-01-01,74
1824-01-01,82
1825-01-01,82
1826-01-01,86
1827-01-01,86
1828-01-01,86
1829-01-01,86
1830-01-01,90
1831-01-01,97
1832-01-01,98
1833-01-01,105
1834-01-01,100
1835-01-01,100
1836-01-01,97
1837-01-01,97
1838-01-01,97
1839-01-01,97
1840-01-01,97
1841-01-01,97
1842-01-01,97
1843-01-01,104
1844-01-01,101
1845-01-01,101
1846-01-01,101
1847-01-01,97
1848-01-01,111
1849-01-01,111
1850-01-01,111
1851-01-01,115
1852-01-01,105
1853-01-01,110
1854-01-01,110
1855-01-01,110
1856-01-01,110
1857-01-01,114
1858-01-01,114
1859-01-01,114
1860-01-01,117
1861-01-01,112
1862-01-01,112
1863-01-01,113
1864-01-01,113
1865-01-01,108
1866-01-01,112
1867-01-01,111
1868-01-01,115
1869-01-01,122
1870-01-01,125
1871-01-01,125
1872-01-01,125
1873-01-01,123
1874-01-01,128
1875-01-01,128
1876-01-01,128
1877-01-01,128
1878-01-01,127
1879-01-01,130
1880-01-01,135
1881-01-01,133
1882-01-01,133
1883-01-01,133
1884-01-01,133
1885-01-01,133
1886-01-01,140
1887-01-01,140
1888-01-01,140
1889-01-01,142
1890-01-01,142
1891-01-01,143
1892-01-01,139
1893-01-01,139
1894-01-01,138
1895-01-01,138
1896-01-01,139
1897-01-01,141
1898-01-01,141
1899-01-01,140
1900-01-01,141
1901-01-01,144
1902-01-01,143
1903-01-01,143
1904-01-01,146
1905-01-01,146
1906-01-01,145
1907-01-01,145
1908-01-01,145
1909-01-01,143
1910-01-01,143
1911-01-01,143
1912-01-01,144
1913-01-01,144
1914-01-01,145
1915-01-01,144
1916-01-01,144
1917-01-01,154
1918-01-01,162
1919-01-01,165
1920-01-01,169
1921-01-01,172
1922-01-01,177
1923-01-01,177
1924-01-01,185
1925-01-01,186
1926-01-01,182
1927-01-01,181
1928-01-01,182
1929-01-01,180
1930-01-01,179
1931-01-01,185
1932-01-01,180
1933-01-01,184
1934-01-01,185
1935-01-01,188
1936-01-01,187
1937-01-01,192
1938-01-01,191
1939-01-01,190
1940-01-01,196
1941-01-01,188
1942-01-01,188
1943-01-01,192
1944-01-01,187
1945-01-01,188
1946-01-01,198
1947-01-01,199
1948-01-01,206
1949-01-01,205
1950-01-01,207
1951-01-01,206
1952-01-01,206
1953-01-01,207
1954-01-01,204
1955-01-01,203
1956-01-01,203
1957-01-01,205
1958-01-01,205
1959-01-01,204
1960-01-01,209
1961-01-01,210
1962-01-01,209
1963-01-01,209
1964-01-01,209
1965-01-01,210
1966-01-01,211
1967-01-01,210
1968-01-01,210
1969-01-01,210
1970-01-01,210
1971-01-01,210
1972-01-01,209
1973-01-01,207
1974-01-01,209
1975-01-01,208
1976-01-01,212
1977-01-01,212
1978-01-01,217
1979-01-01,219
1980-01-01,219
1981-01-01,219
1982-01-01,222
1983-01-01,222
1984-01-01,222
1985-01-01,220
1986-01-01,219
1987-01-01,223
1988-01-01,222
1989-01-01,224
1990-01-01,226
1991-01-01,225
1992-01-01,226
1993-01-01,228
1994-01-01,228
1995-01-01,228
1996-01-01,228
1997-01-01,228
1998-01-01,229
1999-01-01,229
2000-01-01,229
2001-01-01,229
2002-01-01,229
2003-01-01,229
2004-01-01,229
2005-01-01,229
2006-01-01,229
2007-01-01,229
2008-01-01,229
2009-01-01,230
2010-01-01,230
